{
  "project_info": {
    "project_number": "421535327263",
    "firebase_url": "https://iserveumainapp.firebaseio.com",
    "project_id": "iserveumainapp",
    "storage_bucket": "iserveumainapp.appspot.com"
  },
  "client": [
    {
      "client_info": {
        "mobilesdk_app_id": "1:421535327263:android:f007f4ae59301a37",
        "android_client_info": {
          "package_name": "com.iserveu.aeps"
        }
      },
      "oauth_client": [
        {
          "client_id": "421535327263-c69n08rn83cgjg9lbbd93c0vmmbfl4rd.apps.googleusercontent.com",
          "client_type": 3
        }
      ],
      "api_key": [
        {
          "current_key": "AIzaSyA5djkYQogDtP_HXSx6ZS8wB8BMZzH5z3Q"
        }
      ],
      "services": {
        "appinvite_service": {
          "other_platform_oauth_client": [
            {
              "client_id": "421535327263-c69n08rn83cgjg9lbbd93c0vmmbfl4rd.apps.googleusercontent.com",
              "client_type": 3
            }
          ]
        }
      }
    },
    {
      "client_info": {
        "mobilesdk_app_id": "1:421535327263:android:9548b1486aee988b",
        "android_client_info": {
          "package_name": "com.iserveu.iserveu"
        }
      },
      "oauth_client": [
        {
          "client_id": "421535327263-c69n08rn83cgjg9lbbd93c0vmmbfl4rd.apps.googleusercontent.com",
          "client_type": 3
        }
      ],
      "api_key": [
        {
          "current_key": "AIzaSyA5djkYQogDtP_HXSx6ZS8wB8BMZzH5z3Q"
        }
      ],
      "services": {
        "appinvite_service": {
          "other_platform_oauth_client": [
            {
              "client_id": "421535327263-c69n08rn83cgjg9lbbd93c0vmmbfl4rd.apps.googleusercontent.com",
              "client_type": 3
            }
          ]
        }
      }
    },
    {
      "client_info": {
        "mobilesdk_app_id": "1:421535327263:android:ae5550f3358d4092",
        "android_client_info": {
          "package_name": "com.somriddhi.somriddhiaeps"
        }
      },
      "oauth_client": [
        {
          "client_id": "421535327263-c69n08rn83cgjg9lbbd93c0vmmbfl4rd.apps.googleusercontent.com",
          "client_type": 3
        }
      ],
      "api_key": [
        {
          "current_key": "AIzaSyA5djkYQogDtP_HXSx6ZS8wB8BMZzH5z3Q"
        }
      ],
      "services": {
        "appinvite_service": {
          "other_platform_oauth_client": [
            {
              "client_id": "421535327263-c69n08rn83cgjg9lbbd93c0vmmbfl4rd.apps.googleusercontent.com",
              "client_type": 3
            }
          ]
        }
      }
    },
    {
      "client_info": {
        "mobilesdk_app_id": "1:421535327263:android:74d3f4e891ed7221",
        "android_client_info": {
          "package_name": "com.suvidhamart.suvidha"
        }
      },
      "oauth_client": [
        {
          "client_id": "421535327263-c69n08rn83cgjg9lbbd93c0vmmbfl4rd.apps.googleusercontent.com",
          "client_type": 3
        }
      ],
      "api_key": [
        {
          "current_key": "AIzaSyA5djkYQogDtP_HXSx6ZS8wB8BMZzH5z3Q"
        }
      ],
      "services": {
        "appinvite_service": {
          "other_platform_oauth_client": [
            {
              "client_id": "421535327263-c69n08rn83cgjg9lbbd93c0vmmbfl4rd.apps.googleusercontent.com",
              "client_type": 3
            }
          ]
        }
      }
    }
  ],
  "configuration_version": "1"
}